^C:\USERS\MIHAI F\SOURCE\REPOS\MAGAZINGUI\MAGAZINGUI\COSCUMPARATURI.CPP
/c /I.\GENERATEDFILES /I. /IC:\QT\5.10.1\MSVC2017_64\INCLUDE /I.\GENERATEDFILES\DEBUG /IC:\QT\5.10.1\MSVC2017_64\INCLUDE\QTCORE /IC:\QT\5.10.1\MSVC2017_64\INCLUDE\QTGUI /IC:\QT\5.10.1\MSVC2017_64\INCLUDE\QTANGLE /IC:\QT\5.10.1\MSVC2017_64\INCLUDE\QTWIDGETS /Zi /nologo /W1 /WX- /diagnostics:classic /Od /D UNICODE /D _UNICODE /D WIN32 /D WIN64 /D QT_DLL /D QT_CORE_LIB /D QT_GUI_LIB /D QT_WIDGETS_LIB /Gm- /EHsc /MDd /GS /fp:precise /Zc:wchar_t /Zc:forScope /Zc:inline /Fo"X64\DEBUG\\" /Fd"X64\DEBUG\VC141.PDB" /Gd /TP C:\USERS\MIHAI F\SOURCE\REPOS\MAGAZINGUI\MAGAZINGUI\COSCUMPARATURI.CPP
^C:\USERS\MIHAI F\SOURCE\REPOS\MAGAZINGUI\MAGAZINGUI\FILEREPOSITORY.CPP
/c /I.\GENERATEDFILES /I. /IC:\QT\5.10.1\MSVC2017_64\INCLUDE /I.\GENERATEDFILES\DEBUG /IC:\QT\5.10.1\MSVC2017_64\INCLUDE\QTCORE /IC:\QT\5.10.1\MSVC2017_64\INCLUDE\QTGUI /IC:\QT\5.10.1\MSVC2017_64\INCLUDE\QTANGLE /IC:\QT\5.10.1\MSVC2017_64\INCLUDE\QTWIDGETS /Zi /nologo /W1 /WX- /diagnostics:classic /Od /D UNICODE /D _UNICODE /D WIN32 /D WIN64 /D QT_DLL /D QT_CORE_LIB /D QT_GUI_LIB /D QT_WIDGETS_LIB /Gm- /EHsc /MDd /GS /fp:precise /Zc:wchar_t /Zc:forScope /Zc:inline /Fo"X64\DEBUG\\" /Fd"X64\DEBUG\VC141.PDB" /Gd /TP C:\USERS\MIHAI F\SOURCE\REPOS\MAGAZINGUI\MAGAZINGUI\FILEREPOSITORY.CPP
^C:\USERS\MIHAI F\SOURCE\REPOS\MAGAZINGUI\MAGAZINGUI\ITEM.CPP
/c /I.\GENERATEDFILES /I. /IC:\QT\5.10.1\MSVC2017_64\INCLUDE /I.\GENERATEDFILES\DEBUG /IC:\QT\5.10.1\MSVC2017_64\INCLUDE\QTCORE /IC:\QT\5.10.1\MSVC2017_64\INCLUDE\QTGUI /IC:\QT\5.10.1\MSVC2017_64\INCLUDE\QTANGLE /IC:\QT\5.10.1\MSVC2017_64\INCLUDE\QTWIDGETS /Zi /nologo /W1 /WX- /diagnostics:classic /Od /D UNICODE /D _UNICODE /D WIN32 /D WIN64 /D QT_DLL /D QT_CORE_LIB /D QT_GUI_LIB /D QT_WIDGETS_LIB /Gm- /EHsc /MDd /GS /fp:precise /Zc:wchar_t /Zc:forScope /Zc:inline /Fo"X64\DEBUG\\" /Fd"X64\DEBUG\VC141.PDB" /Gd /TP C:\USERS\MIHAI F\SOURCE\REPOS\MAGAZINGUI\MAGAZINGUI\ITEM.CPP
^C:\USERS\MIHAI F\SOURCE\REPOS\MAGAZINGUI\MAGAZINGUI\SERVICE.CPP
/c /I.\GENERATEDFILES /I. /IC:\QT\5.10.1\MSVC2017_64\INCLUDE /I.\GENERATEDFILES\DEBUG /IC:\QT\5.10.1\MSVC2017_64\INCLUDE\QTCORE /IC:\QT\5.10.1\MSVC2017_64\INCLUDE\QTGUI /IC:\QT\5.10.1\MSVC2017_64\INCLUDE\QTANGLE /IC:\QT\5.10.1\MSVC2017_64\INCLUDE\QTWIDGETS /Zi /nologo /W1 /WX- /diagnostics:classic /Od /D UNICODE /D _UNICODE /D WIN32 /D WIN64 /D QT_DLL /D QT_CORE_LIB /D QT_GUI_LIB /D QT_WIDGETS_LIB /Gm- /EHsc /MDd /GS /fp:precise /Zc:wchar_t /Zc:forScope /Zc:inline /Fo"X64\DEBUG\\" /Fd"X64\DEBUG\VC141.PDB" /Gd /TP C:\USERS\MIHAI F\SOURCE\REPOS\MAGAZINGUI\MAGAZINGUI\SERVICE.CPP
^C:\USERS\MIHAI F\SOURCE\REPOS\MAGAZINGUI\MAGAZINGUI\GENERATEDFILES\QRC_MAGAZINGUI.CPP
/c /I.\GENERATEDFILES /I. /IC:\QT\5.10.1\MSVC2017_64\INCLUDE /I.\GENERATEDFILES\DEBUG /IC:\QT\5.10.1\MSVC2017_64\INCLUDE\QTCORE /IC:\QT\5.10.1\MSVC2017_64\INCLUDE\QTGUI /IC:\QT\5.10.1\MSVC2017_64\INCLUDE\QTANGLE /IC:\QT\5.10.1\MSVC2017_64\INCLUDE\QTWIDGETS /Zi /nologo /W1 /WX- /diagnostics:classic /Od /D UNICODE /D _UNICODE /D WIN32 /D WIN64 /D QT_DLL /D QT_CORE_LIB /D QT_GUI_LIB /D QT_WIDGETS_LIB /Gm- /EHsc /MDd /GS /fp:precise /Zc:wchar_t /Zc:forScope /Zc:inline /Fo"X64\DEBUG\\" /Fd"X64\DEBUG\VC141.PDB" /Gd /TP C:\USERS\MIHAI F\SOURCE\REPOS\MAGAZINGUI\MAGAZINGUI\GENERATEDFILES\QRC_MAGAZINGUI.CPP
^C:\USERS\MIHAI F\SOURCE\REPOS\MAGAZINGUI\MAGAZINGUI\MAGAZINGUI.CPP
/c /I.\GENERATEDFILES /I. /IC:\QT\5.10.1\MSVC2017_64\INCLUDE /I.\GENERATEDFILES\DEBUG /IC:\QT\5.10.1\MSVC2017_64\INCLUDE\QTCORE /IC:\QT\5.10.1\MSVC2017_64\INCLUDE\QTGUI /IC:\QT\5.10.1\MSVC2017_64\INCLUDE\QTANGLE /IC:\QT\5.10.1\MSVC2017_64\INCLUDE\QTWIDGETS /Zi /nologo /W1 /WX- /diagnostics:classic /Od /D UNICODE /D _UNICODE /D WIN32 /D WIN64 /D QT_DLL /D QT_CORE_LIB /D QT_GUI_LIB /D QT_WIDGETS_LIB /Gm- /EHsc /MDd /GS /fp:precise /Zc:wchar_t /Zc:forScope /Zc:inline /Fo"X64\DEBUG\\" /Fd"X64\DEBUG\VC141.PDB" /Gd /TP C:\USERS\MIHAI F\SOURCE\REPOS\MAGAZINGUI\MAGAZINGUI\MAGAZINGUI.CPP
^C:\USERS\MIHAI F\SOURCE\REPOS\MAGAZINGUI\MAGAZINGUI\MAIN.CPP
/c /I.\GENERATEDFILES /I. /IC:\QT\5.10.1\MSVC2017_64\INCLUDE /I.\GENERATEDFILES\DEBUG /IC:\QT\5.10.1\MSVC2017_64\INCLUDE\QTCORE /IC:\QT\5.10.1\MSVC2017_64\INCLUDE\QTGUI /IC:\QT\5.10.1\MSVC2017_64\INCLUDE\QTANGLE /IC:\QT\5.10.1\MSVC2017_64\INCLUDE\QTWIDGETS /Zi /nologo /W1 /WX- /diagnostics:classic /Od /D UNICODE /D _UNICODE /D WIN32 /D WIN64 /D QT_DLL /D QT_CORE_LIB /D QT_GUI_LIB /D QT_WIDGETS_LIB /Gm- /EHsc /MDd /GS /fp:precise /Zc:wchar_t /Zc:forScope /Zc:inline /Fo"X64\DEBUG\\" /Fd"X64\DEBUG\VC141.PDB" /Gd /TP C:\USERS\MIHAI F\SOURCE\REPOS\MAGAZINGUI\MAGAZINGUI\MAIN.CPP
^C:\USERS\MIHAI F\DESKTOP\MAGAZINGUI\MAGAZINGUI\COSCUMPARATURI.CPP
/c /I.\GENERATEDFILES /I. /IC:\QT\5.10.1\MSVC2017_64\INCLUDE /I.\GENERATEDFILES\DEBUG /IC:\QT\5.10.1\MSVC2017_64\INCLUDE\QTCORE /IC:\QT\5.10.1\MSVC2017_64\INCLUDE\QTGUI /IC:\QT\5.10.1\MSVC2017_64\INCLUDE\QTANGLE /IC:\QT\5.10.1\MSVC2017_64\INCLUDE\QTWIDGETS /Zi /nologo /W1 /WX- /diagnostics:classic /Od /D UNICODE /D _UNICODE /D WIN32 /D WIN64 /D QT_DLL /D QT_CORE_LIB /D QT_GUI_LIB /D QT_WIDGETS_LIB /Gm- /EHsc /MDd /GS /fp:precise /Zc:wchar_t /Zc:forScope /Zc:inline /Fo"X64\DEBUG\\" /Fd"X64\DEBUG\VC141.PDB" /Gd /TP C:\USERS\MIHAI F\DESKTOP\MAGAZINGUI\MAGAZINGUI\COSCUMPARATURI.CPP
^C:\USERS\MIHAI F\DESKTOP\MAGAZINGUI\MAGAZINGUI\FILEREPOSITORY.CPP
/c /I.\GENERATEDFILES /I. /IC:\QT\5.10.1\MSVC2017_64\INCLUDE /I.\GENERATEDFILES\DEBUG /IC:\QT\5.10.1\MSVC2017_64\INCLUDE\QTCORE /IC:\QT\5.10.1\MSVC2017_64\INCLUDE\QTGUI /IC:\QT\5.10.1\MSVC2017_64\INCLUDE\QTANGLE /IC:\QT\5.10.1\MSVC2017_64\INCLUDE\QTWIDGETS /Zi /nologo /W1 /WX- /diagnostics:classic /Od /D UNICODE /D _UNICODE /D WIN32 /D WIN64 /D QT_DLL /D QT_CORE_LIB /D QT_GUI_LIB /D QT_WIDGETS_LIB /Gm- /EHsc /MDd /GS /fp:precise /Zc:wchar_t /Zc:forScope /Zc:inline /Fo"X64\DEBUG\\" /Fd"X64\DEBUG\VC141.PDB" /Gd /TP C:\USERS\MIHAI F\DESKTOP\MAGAZINGUI\MAGAZINGUI\FILEREPOSITORY.CPP
^C:\USERS\MIHAI F\DESKTOP\MAGAZINGUI\MAGAZINGUI\ITEM.CPP
/c /I.\GENERATEDFILES /I. /IC:\QT\5.10.1\MSVC2017_64\INCLUDE /I.\GENERATEDFILES\DEBUG /IC:\QT\5.10.1\MSVC2017_64\INCLUDE\QTCORE /IC:\QT\5.10.1\MSVC2017_64\INCLUDE\QTGUI /IC:\QT\5.10.1\MSVC2017_64\INCLUDE\QTANGLE /IC:\QT\5.10.1\MSVC2017_64\INCLUDE\QTWIDGETS /Zi /nologo /W1 /WX- /diagnostics:classic /Od /D UNICODE /D _UNICODE /D WIN32 /D WIN64 /D QT_DLL /D QT_CORE_LIB /D QT_GUI_LIB /D QT_WIDGETS_LIB /Gm- /EHsc /MDd /GS /fp:precise /Zc:wchar_t /Zc:forScope /Zc:inline /Fo"X64\DEBUG\\" /Fd"X64\DEBUG\VC141.PDB" /Gd /TP C:\USERS\MIHAI F\DESKTOP\MAGAZINGUI\MAGAZINGUI\ITEM.CPP
^C:\USERS\MIHAI F\DESKTOP\MAGAZINGUI\MAGAZINGUI\SERVICE.CPP
/c /I.\GENERATEDFILES /I. /IC:\QT\5.10.1\MSVC2017_64\INCLUDE /I.\GENERATEDFILES\DEBUG /IC:\QT\5.10.1\MSVC2017_64\INCLUDE\QTCORE /IC:\QT\5.10.1\MSVC2017_64\INCLUDE\QTGUI /IC:\QT\5.10.1\MSVC2017_64\INCLUDE\QTANGLE /IC:\QT\5.10.1\MSVC2017_64\INCLUDE\QTWIDGETS /Zi /nologo /W1 /WX- /diagnostics:classic /Od /D UNICODE /D _UNICODE /D WIN32 /D WIN64 /D QT_DLL /D QT_CORE_LIB /D QT_GUI_LIB /D QT_WIDGETS_LIB /Gm- /EHsc /MDd /GS /fp:precise /Zc:wchar_t /Zc:forScope /Zc:inline /Fo"X64\DEBUG\\" /Fd"X64\DEBUG\VC141.PDB" /Gd /TP C:\USERS\MIHAI F\DESKTOP\MAGAZINGUI\MAGAZINGUI\SERVICE.CPP
^C:\USERS\MIHAI F\DESKTOP\MAGAZINGUI\MAGAZINGUI\GENERATEDFILES\QRC_MAGAZINGUI.CPP
/c /I.\GENERATEDFILES /I. /IC:\QT\5.10.1\MSVC2017_64\INCLUDE /I.\GENERATEDFILES\DEBUG /IC:\QT\5.10.1\MSVC2017_64\INCLUDE\QTCORE /IC:\QT\5.10.1\MSVC2017_64\INCLUDE\QTGUI /IC:\QT\5.10.1\MSVC2017_64\INCLUDE\QTANGLE /IC:\QT\5.10.1\MSVC2017_64\INCLUDE\QTWIDGETS /Zi /nologo /W1 /WX- /diagnostics:classic /Od /D UNICODE /D _UNICODE /D WIN32 /D WIN64 /D QT_DLL /D QT_CORE_LIB /D QT_GUI_LIB /D QT_WIDGETS_LIB /Gm- /EHsc /MDd /GS /fp:precise /Zc:wchar_t /Zc:forScope /Zc:inline /Fo"X64\DEBUG\\" /Fd"X64\DEBUG\VC141.PDB" /Gd /TP C:\USERS\MIHAI F\DESKTOP\MAGAZINGUI\MAGAZINGUI\GENERATEDFILES\QRC_MAGAZINGUI.CPP
^C:\USERS\MIHAI F\DESKTOP\MAGAZINGUI\MAGAZINGUI\MAIN.CPP
/c /I.\GENERATEDFILES /I. /IC:\QT\5.10.1\MSVC2017_64\INCLUDE /I.\GENERATEDFILES\DEBUG /IC:\QT\5.10.1\MSVC2017_64\INCLUDE\QTCORE /IC:\QT\5.10.1\MSVC2017_64\INCLUDE\QTGUI /IC:\QT\5.10.1\MSVC2017_64\INCLUDE\QTANGLE /IC:\QT\5.10.1\MSVC2017_64\INCLUDE\QTWIDGETS /Zi /nologo /W1 /WX- /diagnostics:classic /Od /D UNICODE /D _UNICODE /D WIN32 /D WIN64 /D QT_DLL /D QT_CORE_LIB /D QT_GUI_LIB /D QT_WIDGETS_LIB /Gm- /EHsc /MDd /GS /fp:precise /Zc:wchar_t /Zc:forScope /Zc:inline /Fo"X64\DEBUG\\" /Fd"X64\DEBUG\VC141.PDB" /Gd /TP C:\USERS\MIHAI F\DESKTOP\MAGAZINGUI\MAGAZINGUI\MAIN.CPP
^C:\USERS\MIHAI F\DESKTOP\MAGAZINGUI\MAGAZINGUI\MAGAZINGUI.CPP
/c /I.\GENERATEDFILES /I. /IC:\QT\5.10.1\MSVC2017_64\INCLUDE /I.\GENERATEDFILES\DEBUG /IC:\QT\5.10.1\MSVC2017_64\INCLUDE\QTCORE /IC:\QT\5.10.1\MSVC2017_64\INCLUDE\QTGUI /IC:\QT\5.10.1\MSVC2017_64\INCLUDE\QTANGLE /IC:\QT\5.10.1\MSVC2017_64\INCLUDE\QTWIDGETS /Zi /nologo /W1 /WX- /diagnostics:classic /Od /D UNICODE /D _UNICODE /D WIN32 /D WIN64 /D QT_DLL /D QT_CORE_LIB /D QT_GUI_LIB /D QT_WIDGETS_LIB /Gm- /EHsc /MDd /GS /fp:precise /Zc:wchar_t /Zc:forScope /Zc:inline /Fo"X64\DEBUG\\" /Fd"X64\DEBUG\VC141.PDB" /Gd /TP C:\USERS\MIHAI F\DESKTOP\MAGAZINGUI\MAGAZINGUI\MAGAZINGUI.CPP
