^C:\USERS\MIHAI F\SOURCE\REPOS\MAGAZINGUI\MAGAZINGUI\X64\DEBUG\COSCUMPARATURI.OBJ|C:\USERS\MIHAI F\SOURCE\REPOS\MAGAZINGUI\MAGAZINGUI\X64\DEBUG\FILEREPOSITORY.OBJ|C:\USERS\MIHAI F\SOURCE\REPOS\MAGAZINGUI\MAGAZINGUI\X64\DEBUG\ITEM.OBJ|C:\USERS\MIHAI F\SOURCE\REPOS\MAGAZINGUI\MAGAZINGUI\X64\DEBUG\MAGAZINGUI.OBJ|C:\USERS\MIHAI F\SOURCE\REPOS\MAGAZINGUI\MAGAZINGUI\X64\DEBUG\MAIN.OBJ|C:\USERS\MIHAI F\SOURCE\REPOS\MAGAZINGUI\MAGAZINGUI\X64\DEBUG\QRC_MAGAZINGUI.OBJ|C:\USERS\MIHAI F\SOURCE\REPOS\MAGAZINGUI\MAGAZINGUI\X64\DEBUG\SERVICE.OBJ
C:\USERS\MIHAI F\SOURCE\REPOS\MAGAZINGUI\X64\DEBUG\MAGAZINGUI.EXE
C:\USERS\MIHAI F\SOURCE\REPOS\MAGAZINGUI\X64\DEBUG\MAGAZINGUI.ILK
C:\USERS\MIHAI F\SOURCE\REPOS\MAGAZINGUI\X64\DEBUG\MAGAZINGUI.PDB
^C:\USERS\MIHAI F\DESKTOP\MAGAZINGUI\MAGAZINGUI\X64\DEBUG\COSCUMPARATURI.OBJ|C:\USERS\MIHAI F\DESKTOP\MAGAZINGUI\MAGAZINGUI\X64\DEBUG\FILEREPOSITORY.OBJ|C:\USERS\MIHAI F\DESKTOP\MAGAZINGUI\MAGAZINGUI\X64\DEBUG\ITEM.OBJ|C:\USERS\MIHAI F\DESKTOP\MAGAZINGUI\MAGAZINGUI\X64\DEBUG\MAGAZINGUI.OBJ|C:\USERS\MIHAI F\DESKTOP\MAGAZINGUI\MAGAZINGUI\X64\DEBUG\MAIN.OBJ|C:\USERS\MIHAI F\DESKTOP\MAGAZINGUI\MAGAZINGUI\X64\DEBUG\QRC_MAGAZINGUI.OBJ|C:\USERS\MIHAI F\DESKTOP\MAGAZINGUI\MAGAZINGUI\X64\DEBUG\SERVICE.OBJ
C:\USERS\MIHAI F\DESKTOP\MAGAZINGUI\X64\DEBUG\MAGAZINGUI.EXE
C:\USERS\MIHAI F\DESKTOP\MAGAZINGUI\X64\DEBUG\MAGAZINGUI.ILK
C:\USERS\MIHAI F\DESKTOP\MAGAZINGUI\X64\DEBUG\MAGAZINGUI.PDB
